Experimento_2/ALL0003/F0003CH1.CSV

Record Length,2.500000e+03,,  -0.000070400000,   1.28000,
Sample Interval,4.000000e-08,,  -0.000070360000,   1.30000,
Trigger Point,1.760000000000e+03,,  -0.000070320000,   1.30000,
,,,  -0.000070280000,   1.30000,
,,,  -0.000070240000,   1.28000,
,,,  -0.000070200000,   1.28000,
Source,CH1,,  -0.000070160000,   1.32000,
Vertical Units,V,,  -0.000070120000,   1.30000,
Vertical Scale,5.000000e-01,,  -0.000070080000,   1.30000,
Vertical Offset,0.000000e+00,,  -0.000070040000,   1.30000,
Horizontal Units,s,,  -0.000070000000,   1.30000,
Horizontal Scale,1.000000e-05,,  -0.000069960000,   1.30000,
Pt Fmt,Y,,  -0.000069920000,   1.32000,
Yzero,0.000000e+00,,  -0.000069880000,   1.30000,
Probe Atten,1.000000e+01,,  -0.000069840000,   1.28000,
Model Number,TBS1052B,,  -0.000069800000,   1.30000,
Serial Number,C044584,,  -0.000069760000,   1.28000,
Firmware Version,FV:v4.06,,  -0.000069720000,   1.30000,
,,,-00.000069680000,   1.30000,
,,,-00.000069640000,   1.32000,
,,,-00.000069600000,   1.32000,
,,,-00.000069560000,   1.30000,
,,,-00.000069520000,   1.30000,
,,,-00.000069480000,   1.28000,
,,,-00.000069440000,   1.32000,
,,,-00.000069400000,   1.30000,
,,,-00.000069360000,   1.30000,
,,,-00.000069320000,   1.30000,
,,,-00.000069280000,   1.28000,
,,,-00.000069240000,   1.30000,
,,,-00.000069200000,   1.30000,
,,,-00.000069160000,   1.30000,
,,,-00.000069120000,   1.30000,
,,,-00.000069080000,   1.30000,
,,,-00.000069040000,   1.32000,
,,,-00.000069000000,   1.30000,
,,,-00.000068960000,   1.32000,
,,,-00.000068920000,   1.28000,
,,,-00.000068880000,   1.30000,
,,,-00.000068840000,   1.32000,
,,,-00.000068800000,   1.32000,
,,,-00.000068760000,   1.30000,
,,,-00.000068720000,   1.30000,
,,,-00.000068680000,   1.32000,
,,,-00.000068640000,   1.28000,
,,,-00.000068600000,   1.28000,
,,,-00.000068560000,   1.30000,
,,,-00.000068520000,   1.32000,
,,,-00.000068480000,   1.28000,
,,,-00.000068440000,   1.32000,
,,,-00.000068400000,   1.28000,
,,,-00.000068360000,   1.30000,
,,,-00.000068320000,   1.32000,
,,,-00.000068280000,   1.32000,
,,,-00.000068240000,   1.32000,
,,,-00.000068200000,   1.28000,
,,,-00.000068160000,   1.30000,
,,,-00.000068120000,   1.28000,
,,,-00.000068080000,   1.30000,
,,,-00.000068040000,   1.30000,
,,,-00.000068000000,   1.30000,
,,,-00.000067960000,   1.30000,
,,,-00.000067920000,   1.32000,
,,,-00.000067880000,   1.28000,
,,,-00.000067840000,   1.32000,
,,,-00.000067800000,   1.30000,
,,,-00.000067760000,   1.30000,
,,,-00.000067720000,   1.32000,
,,,-00.000067680000,   1.30000,
,,,-00.000067640000,   1.28000,
,,,-00.000067600000,   1.28000,
,,,-00.000067560000,   1.32000,
,,,-00.000067520000,   1.30000,
,,,-00.000067480000,   1.30000,
,,,-00.000067440000,   1.28000,
,,,-00.000067400000,   1.28000,
,,,-00.000067360000,   1.28000,
,,,-00.000067320000,   1.30000,
,,,-00.000067280000,   1.32000,
,,,-00.000067240000,   1.28000,
,,,-00.000067200000,   1.28000,
,,,-00.000067160000,   1.30000,
,,,-00.000067120000,   1.30000,
,,,-00.000067080000,   1.32000,
,,,-00.000067040000,   1.28000,
,,,-00.000067000000,   1.30000,
,,,-00.000066960000,   1.32000,
,,,-00.000066920000,   1.30000,
,,,-00.000066880000,   1.30000,
,,,-00.000066840000,   1.28000,
,,,-00.000066800000,   1.30000,
,,,-00.000066760000,   1.32000,
,,,-00.000066720000,   1.34000,
,,,-00.000066680000,   1.32000,
,,,-00.000066640000,   1.30000,
,,,-00.000066600000,   1.30000,
,,,-00.000066560000,   1.28000,
,,,-00.000066520000,   1.32000,
,,,-00.000066480000,   1.30000,
,,,-00.000066440000,   1.28000,
,,,-00.000066400000,   1.30000,
,,,-00.000066360000,   1.26000,
,,,-00.000066320000,   1.32000,
,,,-00.000066280000,   1.28000,
,,,-00.000066240000,   1.32000,
,,,-00.000066200000,   1.30000,
,,,-00.000066160000,   1.30000,
,,,-00.000066120000,   1.30000,
,,,-00.000066080000,   1.30000,
,,,-00.000066040000,   1.32000,
,,,-00.000066000000,   1.28000,
,,,-00.000065960000,   1.32000,
,,,-00.000065920000,   1.28000,
,,,-00.000065880000,   1.32000,
,,,-00.000065840000,   1.30000,
,,,-00.000065800000,   1.30000,
,,,-00.000065760000,   1.30000,
,,,-00.000065720000,   1.30000,
,,,-00.000065680000,   1.30000,
,,,-00.000065640000,   1.30000,
,,,-00.000065600000,   1.28000,
,,,-00.000065560000,   1.28000,
,,,-00.000065520000,   1.30000,
,,,-00.000065480000,   1.30000,
,,,-00.000065440000,   1.30000,
,,,-00.000065400000,   1.32000,
,,,-00.000065360000,   1.32000,
,,,-00.000065320000,   1.30000,
,,,-00.000065280000,   1.32000,
,,,-00.000065240000,   1.30000,
,,,-00.000065200000,   1.32000,
,,,-00.000065160000,   1.30000,
,,,-00.000065120000,   1.30000,
,,,-00.000065080000,   1.30000,
,,,-00.000065040000,   1.28000,
,,,-00.000065000000,   1.32000,
,,,-00.000064960000,   1.28000,
,,,-00.000064920000,   1.30000,
,,,-00.000064880000,   1.28000,
,,,-00.000064840000,   1.30000,
,,,-00.000064800000,   1.32000,
,,,-00.000064760000,   1.32000,
,,,-00.000064720000,   1.32000,
,,,-00.000064680000,   1.32000,
,,,-00.000064640000,   1.32000,
,,,-00.000064600000,   1.32000,
,,,-00.000064560000,   1.32000,
,,,-00.000064520000,   1.30000,
,,,-00.000064480000,   1.30000,
,,,-00.000064440000,   1.28000,
,,,-00.000064400000,   1.32000,
,,,-00.000064360000,   1.30000,
,,,-00.000064320000,   1.32000,
,,,-00.000064280000,   1.28000,
,,,-00.000064240000,   1.28000,
,,,-00.000064200000,   1.30000,
,,,-00.000064160000,   1.28000,
,,,-00.000064120000,   1.30000,
,,,-00.000064080000,   1.30000,
,,,-00.000064040000,   1.30000,
,,,-00.000064000000,   1.30000,
,,,-00.000063960000,   1.32000,
,,,-00.000063920000,   1.26000,
,,,-00.000063880000,   1.32000,
,,,-00.000063840000,   1.32000,
,,,-00.000063800000,   1.30000,
,,,-00.000063760000,   1.30000,
,,,-00.000063720000,   1.30000,
,,,-00.000063680000,   1.30000,
,,,-00.000063640000,   1.30000,
,,,-00.000063600000,   1.30000,
,,,-00.000063560000,   1.28000,
,,,-00.000063520000,   1.28000,
,,,-00.000063480000,   1.34000,
,,,-00.000063440000,   1.30000,
,,,-00.000063400000,   1.28000,
,,,-00.000063360000,   1.30000,
,,,-00.000063320000,   1.34000,
,,,-00.000063280000,   1.32000,
,,,-00.000063240000,   1.30000,
,,,-00.000063200000,   1.30000,
,,,-00.000063160000,   1.28000,
,,,-00.000063120000,   1.30000,
,,,-00.000063080000,   1.30000,
,,,-00.000063040000,   1.28000,
,,,-00.000063000000,   1.30000,
,,,-00.000062960000,   1.32000,
,,,-00.000062920000,   1.28000,
,,,-00.000062880000,   1.30000,
,,,-00.000062840000,   1.30000,
,,,-00.000062800000,   1.28000,
,,,-00.000062760000,   1.32000,
,,,-00.000062720000,   1.30000,
,,,-00.000062680000,   1.28000,
,,,-00.000062640000,   1.26000,
,,,-00.000062600000,   1.28000,
,,,-00.000062560000,   1.32000,
,,,-00.000062520000,   1.30000,
,,,-00.000062480000,   1.28000,
,,,-00.000062440000,   1.34000,
,,,-00.000062400000,   1.30000,
,,,-00.000062360000,   1.28000,
,,,-00.000062320000,   1.28000,
,,,-00.000062280000,   1.30000,
,,,-00.000062240000,   1.34000,
,,,-00.000062200000,   1.30000,
,,,-00.000062160000,   1.30000,
,,,-00.000062120000,   1.30000,
,,,-00.000062080000,   1.30000,
,,,-00.000062040000,   1.28000,
,,,-00.000062000000,   1.32000,
,,,-00.000061960000,   1.32000,
,,,-00.000061920000,   1.30000,
,,,-00.000061880000,   1.30000,
,,,-00.000061840000,   1.30000,
,,,-00.000061800000,   1.32000,
,,,-00.000061760000,   1.30000,
,,,-00.000061720000,   1.30000,
,,,-00.000061680000,   1.32000,
,,,-00.000061640000,   1.28000,
,,,-00.000061600000,   1.28000,
,,,-00.000061560000,   1.30000,
,,,-00.000061520000,   1.30000,
,,,-00.000061480000,   1.32000,
,,,-00.000061440000,   1.32000,
,,,-00.000061400000,   1.30000,
,,,-00.000061360000,   1.28000,
,,,-00.000061320000,   1.30000,
,,,-00.000061280000,   1.30000,
,,,-00.000061240000,   1.32000,
,,,-00.000061200000,   1.30000,
,,,-00.000061160000,   1.30000,
,,,-00.000061120000,   1.32000,
,,,-00.000061080000,   1.28000,
,,,-00.000061040000,   1.30000,
,,,-00.000061000000,   1.28000,
,,,-00.000060960000,   1.28000,
,,,-00.000060920000,   1.30000,
,,,-00.000060880000,   1.30000,
,,,-00.000060840000,   1.32000,
,,,-00.000060800000,   1.32000,
,,,-00.000060760000,   1.32000,
,,,-00.000060720000,   1.28000,
,,,-00.000060680000,   1.30000,
,,,-00.000060640000,   1.30000,
,,,-00.000060600000,   1.28000,
,,,-00.000060560000,   1.32000,
,,,-00.000060520000,   1.30000,
,,,-00.000060480000,   1.28000,
,,,-00.000060440000,   1.28000,
,,,-00.000060400000,   1.30000,
,,,-00.000060360000,   1.32000,
,,,-00.000060320000,   1.30000,
,,,-00.000060280000,   1.32000,
,,,-00.000060240000,   1.28000,
,,,-00.000060200000,   1.30000,
,,,-00.000060160000,   1.30000,
,,,-00.000060120000,   1.30000,
,,,-00.000060080000,   1.30000,
,,,-00.000060040000,   1.30000,
,,,-00.000060000000,   1.32000,
,,,-00.000059960000,   1.28000,
,,,-00.000059920000,   1.30000,
,,,-00.000059880000,   1.30000,
,,,-00.000059840000,   1.30000,
,,,-00.000059800000,   1.32000,
,,,-00.000059760000,   1.28000,
,,,-00.000059720000,   1.30000,
,,,-00.000059680000,   1.26000,
,,,-00.000059640000,   1.28000,
,,,-00.000059600000,   1.32000,
,,,-00.000059560000,   1.28000,
,,,-00.000059520000,   1.30000,
,,,-00.000059480000,   1.30000,
,,,-00.000059440000,   1.28000,
,,,-00.000059400000,   1.30000,
,,,-00.000059360000,   1.30000,
,,,-00.000059320000,   1.30000,
,,,-00.000059280000,   1.32000,
,,,-00.000059240000,   1.30000,
,,,-00.000059200000,   1.30000,
,,,-00.000059160000,   1.30000,
,,,-00.000059120000,   1.28000,
,,,-00.000059080000,   1.28000,
,,,-00.000059040000,   1.32000,
,,,-00.000059000000,   1.32000,
,,,-00.000058960000,   1.32000,
,,,-00.000058920000,   1.28000,
,,,-00.000058880000,   1.30000,
,,,-00.000058840000,   1.28000,
,,,-00.000058800000,   1.30000,
,,,-00.000058760000,   1.34000,
,,,-00.000058720000,   1.28000,
,,,-00.000058680000,   1.30000,
,,,-00.000058640000,   1.28000,
,,,-00.000058600000,   1.30000,
,,,-00.000058560000,   1.32000,
,,,-00.000058520000,   1.28000,
,,,-00.000058480000,   1.32000,
,,,-00.000058440000,   1.30000,
,,,-00.000058400000,   1.32000,
,,,-00.000058360000,   1.26000,
,,,-00.000058320000,   1.30000,
,,,-00.000058280000,   1.30000,
,,,-00.000058240000,   1.28000,
,,,-00.000058200000,   1.28000,
,,,-00.000058160000,   1.28000,
,,,-00.000058120000,   1.30000,
,,,-00.000058080000,   1.30000,
,,,-00.000058040000,   1.32000,
,,,-00.000058000000,   1.32000,
,,,-00.000057960000,   1.30000,
,,,-00.000057920000,   1.28000,
,,,-00.000057880000,   1.30000,
,,,-00.000057840000,   1.32000,
,,,-00.000057800000,   1.30000,
,,,-00.000057760000,   1.32000,
,,,-00.000057720000,   1.32000,
,,,-00.000057680000,   1.30000,
,,,-00.000057640000,   1.30000,
,,,-00.000057600000,   1.28000,
,,,-00.000057560000,   1.32000,
,,,-00.000057520000,   1.30000,
,,,-00.000057480000,   1.32000,
,,,-00.000057440000,   1.32000,
,,,-00.000057400000,   1.30000,
,,,-00.000057360000,   1.28000,
,,,-00.000057320000,   1.30000,
,,,-00.000057280000,   1.32000,
,,,-00.000057240000,   1.30000,
,,,-00.000057200000,   1.32000,
,,,-00.000057160000,   1.34000,
,,,-00.000057120000,   1.30000,
,,,-00.000057080000,   1.32000,
,,,-00.000057040000,   1.28000,
,,,-00.000057000000,   1.32000,
,,,-00.000056960000,   1.28000,
,,,-00.000056920000,   1.30000,
,,,-00.000056880000,   1.30000,
,,,-00.000056840000,   1.32000,
,,,-00.000056800000,   1.34000,
,,,-00.000056760000,   1.28000,
,,,-00.000056720000,   1.32000,
,,,-00.000056680000,   1.32000,
,,,-00.000056640000,   1.28000,
,,,-00.000056600000,   1.32000,
,,,-00.000056560000,   1.28000,
,,,-00.000056520000,   1.30000,
,,,-00.000056480000,   1.28000,
,,,-00.000056440000,   1.30000,
,,,-00.000056400000,   1.32000,
,,,-00.000056360000,   1.28000,
,,,-00.000056320000,   1.30000,
,,,-00.000056280000,   1.30000,
,,,-00.000056240000,   1.30000,
,,,-00.000056200000,   1.32000,
,,,-00.000056160000,   1.30000,
,,,-00.000056120000,   1.30000,
,,,-00.000056080000,   1.30000,
,,,-00.000056040000,   1.32000,
,,,-00.000056000000,   1.30000,
,,,-00.000055960000,   1.30000,
,,,-00.000055920000,   1.30000,
,,,-00.000055880000,   1.30000,
,,,-00.000055840000,   1.30000,
,,,-00.000055800000,   1.30000,
,,,-00.000055760000,   1.28000,
,,,-00.000055720000,   1.28000,
,,,-00.000055680000,   1.30000,
,,,-00.000055640000,   1.30000,
,,,-00.000055600000,   1.28000,
,,,-00.000055560000,   1.30000,
,,,-00.000055520000,   1.30000,
,,,-00.000055480000,   1.30000,
,,,-00.000055440000,   1.30000,
,,,-00.000055400000,   1.30000,
,,,-00.000055360000,   1.30000,
,,,-00.000055320000,   1.30000,
,,,-00.000055280000,   1.30000,
,,,-00.000055240000,   1.28000,
,,,-00.000055200000,   1.30000,
,,,-00.000055160000,   1.28000,
,,,-00.000055120000,   1.30000,
,,,-00.000055080000,   1.30000,
,,,-00.000055040000,   1.32000,
,,,-00.000055000000,   1.32000,
,,,-00.000054960000,   1.28000,
,,,-00.000054920000,   1.30000,
,,,-00.000054880000,   1.28000,
,,,-00.000054840000,   1.32000,
,,,-00.000054800000,   1.30000,
,,,-00.000054760000,   1.30000,
,,,-00.000054720000,   1.30000,
,,,-00.000054680000,   1.30000,
,,,-00.000054640000,   1.30000,
,,,-00.000054600000,   1.28000,
,,,-00.000054560000,   1.30000,
,,,-00.000054520000,   1.30000,
,,,-00.000054480000,   1.30000,
,,,-00.000054440000,   1.30000,
,,,-00.000054400000,   1.30000,
,,,-00.000054360000,   1.32000,
,,,-00.000054320000,   1.32000,
,,,-00.000054280000,   1.30000,
,,,-00.000054240000,   1.30000,
,,,-00.000054200000,   1.30000,
,,,-00.000054160000,   1.30000,
,,,-00.000054120000,   1.30000,
,,,-00.000054080000,   1.32000,
,,,-00.000054040000,   1.32000,
,,,-00.000054000000,   1.32000,
,,,-00.000053960000,   1.30000,
,,,-00.000053920000,   1.28000,
,,,-00.000053880000,   1.30000,
,,,-00.000053840000,   1.30000,
,,,-00.000053800000,   1.32000,
,,,-00.000053760000,   1.30000,
,,,-00.000053720000,   1.28000,
,,,-00.000053680000,   1.30000,
,,,-00.000053640000,   1.28000,
,,,-00.000053600000,   1.32000,
,,,-00.000053560000,   1.30000,
,,,-00.000053520000,   1.30000,
,,,-00.000053480000,   1.34000,
,,,-00.000053440000,   1.28000,
,,,-00.000053400000,   1.32000,
,,,-00.000053360000,   1.30000,
,,,-00.000053320000,   1.32000,
,,,-00.000053280000,   1.32000,
,,,-00.000053240000,   1.32000,
,,,-00.000053200000,   1.28000,
,,,-00.000053160000,   1.28000,
,,,-00.000053120000,   1.32000,
,,,-00.000053080000,   1.30000,
,,,-00.000053040000,   1.32000,
,,,-00.000053000000,   1.30000,
,,,-00.000052960000,   1.30000,
,,,-00.000052920000,   1.32000,
,,,-00.000052880000,   1.30000,
,,,-00.000052840000,   1.32000,
,,,-00.000052800000,   1.30000,
,,,-00.000052760000,   1.32000,
,,,-00.000052720000,   1.30000,
,,,-00.000052680000,   1.32000,
,,,-00.000052640000,   1.30000,
,,,-00.000052600000,   1.30000,
,,,-00.000052560000,   1.30000,
,,,-00.000052520000,   1.30000,
,,,-00.000052480000,   1.30000,
,,,-00.000052440000,   1.32000,
,,,-00.000052400000,   1.28000,
,,,-00.000052360000,   1.30000,
,,,-00.000052320000,   1.32000,
,,,-00.000052280000,   1.26000,
,,,-00.000052240000,   1.30000,
,,,-00.000052200000,   1.32000,
,,,-00.000052160000,   1.30000,
,,,-00.000052120000,   1.30000,
,,,-00.000052080000,   1.30000,
,,,-00.000052040000,   1.30000,
,,,-00.000052000000,   1.30000,
,,,-00.000051960000,   1.32000,
,,,-00.000051920000,   1.28000,
,,,-00.000051880000,   1.30000,
,,,-00.000051840000,   1.30000,
,,,-00.000051800000,   1.28000,
,,,-00.000051760000,   1.30000,
,,,-00.000051720000,   1.30000,
,,,-00.000051680000,   1.30000,
,,,-00.000051640000,   1.30000,
,,,-00.000051600000,   1.34000,
,,,-00.000051560000,   1.30000,
,,,-00.000051520000,   1.28000,
,,,-00.000051480000,   1.28000,
,,,-00.000051440000,   1.30000,
,,,-00.000051400000,   1.28000,
,,,-00.000051360000,   1.28000,
,,,-00.000051320000,   1.32000,
,,,-00.000051280000,   1.28000,
,,,-00.000051240000,   1.30000,
,,,-00.000051200000,   1.30000,
,,,-00.000051160000,   1.30000,
,,,-00.000051120000,   1.30000,
,,,-00.000051080000,   1.28000,
,,,-00.000051040000,   1.30000,
,,,-00.000051000000,   1.28000,
,,,-00.000050960000,   1.30000,
,,,-00.000050920000,   1.30000,
,,,-00.000050880000,   1.34000,
,,,-00.000050840000,   1.28000,
,,,-00.000050800000,   1.30000,
,,,-00.000050760000,   1.30000,
,,,-00.000050720000,   1.26000,
,,,-00.000050680000,   1.32000,
,,,-00.000050640000,   1.28000,
,,,-00.000050600000,   1.30000,
,,,-00.000050560000,   1.30000,
,,,-00.000050520000,   1.30000,
,,,-00.000050480000,   1.30000,
,,,-00.000050440000,   1.26000,
,,,-00.000050400000,   1.28000,
,,,-00.000050360000,   1.30000,
,,,-00.000050320000,   1.30000,
,,,-00.000050280000,   1.30000,
,,,-00.000050240000,   1.32000,
,,,-00.000050200000,   1.28000,
,,,-00.000050160000,   1.28000,
,,,-00.000050120000,   1.32000,
,,,-00.000050080000,   1.30000,
,,,-00.000050040000,   1.30000,
,,,-00.000050000000,   1.28000,
,,,-00.000049960000,   1.28000,
,,,-00.000049920000,   1.30000,
,,,-00.000049880000,   1.30000,
,,,-00.000049840000,   1.34000,
,,,-00.000049800000,   1.32000,
,,,-00.000049760000,   1.24000,
,,,-00.000049720000,  -1.20000,
,,,-00.000049680000,  -1.26000,
,,,-00.000049640000,  -1.22000,
,,,-00.000049600000,  -1.24000,
,,,-00.000049560000,  -1.26000,
,,,-00.000049520000,  -1.24000,
,,,-00.000049480000,  -1.24000,
,,,-00.000049440000,  -1.24000,
,,,-00.000049400000,  -1.22000,
,,,-00.000049360000,  -1.24000,
,,,-00.000049320000,  -1.22000,
,,,-00.000049280000,  -1.22000,
,,,-00.000049240000,  -1.20000,
,,,-00.000049200000,  -1.26000,
,,,-00.000049160000,  -1.24000,
,,,-00.000049120000,  -1.26000,
,,,-00.000049080000,  -1.22000,
,,,-00.000049040000,  -1.22000,
,,,-00.000049000000,  -1.24000,
,,,-00.000048960000,  -1.24000,
,,,-00.000048920000,  -1.22000,
,,,-00.000048880000,  -1.20000,
,,,-00.000048840000,  -1.24000,
,,,-00.000048800000,  -1.26000,
,,,-00.000048760000,  -1.22000,
,,,-00.000048720000,  -1.24000,
,,,-00.000048680000,  -1.24000,
,,,-00.000048640000,  -1.26000,
,,,-00.000048600000,  -1.24000,
,,,-00.000048560000,  -1.24000,
,,,-00.000048520000,  -1.22000,
,,,-00.000048480000,  -1.26000,
,,,-00.000048440000,  -1.24000,
,,,-00.000048400000,  -1.26000,
,,,-00.000048360000,  -1.20000,
,,,-00.000048320000,  -1.22000,
,,,-00.000048280000,  -1.24000,
,,,-00.000048240000,  -1.24000,
,,,-00.000048200000,  -1.22000,
,,,-00.000048160000,  -1.24000,
,,,-00.000048120000,  -1.22000,
,,,-00.000048080000,  -1.22000,
,,,-00.000048040000,  -1.20000,
,,,-00.000048000000,  -1.24000,
,,,-00.000047960000,  -1.22000,
,,,-00.000047920000,  -1.24000,
,,,-00.000047880000,  -1.24000,
,,,-00.000047840000,  -1.24000,
,,,-00.000047800000,  -1.22000,
,,,-00.000047760000,  -1.20000,
,,,-00.000047720000,  -1.22000,
,,,-00.000047680000,  -1.24000,
,,,-00.000047640000,  -1.22000,
,,,-00.000047600000,  -1.20000,
,,,-00.000047560000,  -1.24000,
,,,-00.000047520000,  -1.24000,
,,,-00.000047480000,  -1.22000,
,,,-00.000047440000,  -1.24000,
,,,-00.000047400000,  -1.22000,
,,,-00.000047360000,  -1.24000,
,,,-00.000047320000,  -1.24000,
,,,-00.000047280000,  -1.20000,
,,,-00.000047240000,  -1.22000,
,,,-00.000047200000,  -1.22000,
,,,-00.000047160000,  -1.24000,
,,,-00.000047120000,  -1.24000,
,,,-00.000047080000,  -1.24000,
,,,-00.000047040000,  -1.24000,
,,,-00.000047000000,  -1.22000,
,,,-00.000046960000,  -1.24000,
,,,-00.000046920000,  -1.22000,
,,,-00.000046880000,  -1.24000,
,,,-00.000046840000,  -1.26000,
,,,-00.000046800000,  -1.24000,
,,,-00.000046760000,  -1.24000,
,,,-00.000046720000,  -1.24000,
,,,-00.000046680000,  -1.24000,
,,,-00.000046640000,  -1.24000,
,,,-00.000046600000,  -1.24000,
,,,-00.000046560000,  -1.24000,
,,,-00.000046520000,  -1.22000,
,,,-00.000046480000,  -1.24000,
,,,-00.000046440000,  -1.22000,
,,,-00.000046400000,  -1.24000,
,,,-00.000046360000,  -1.20000,
,,,-00.000046320000,  -1.24000,
,,,-00.000046280000,  -1.24000,
,,,-00.000046240000,  -1.24000,
,,,-00.000046200000,  -1.24000,
,,,-00.000046160000,  -1.20000,
,,,-00.000046120000,  -1.22000,
,,,-00.000046080000,  -1.24000,
,,,-00.000046040000,  -1.26000,
,,,-00.000046000000,  -1.24000,
,,,-00.000045960000,  -1.22000,
,,,-00.000045920000,  -1.24000,
,,,-00.000045880000,  -1.22000,
